27025   男  珠海市第十三中学
27003   男  珠海市文园中学
27020   男  珠海市容闳学校
17004   男  珠海一中附属实验学校
27008   女  珠海市拱北中学
27012   男  珠海市第八中学
27002   男  珠海市紫荆中学桃园路校区
27013   男  珠海市第九中学
27004   女  珠海市九洲中学
27015   女  珠海市第十一中学
27014   女  珠海市第十中学
27011   女  珠海市第七中学
47002   女  珠海市金海岸中学
37001   女  斗门区实验中学
27009   男  珠海市夏湾中学
28003   男  珠海北大附属实验学校
28001   女  珠海市唐家中学
37012   男  斗门区城南学校
27010   女  珠海市第五中学
48004   女  珠海高栏港经济区南水中学
47001   女  珠海市红旗中学
27006   女  珠海市南屏中学
48001   女  珠海市平沙镇第一中学
48002   女  珠海市平沙镇第二中学
28004   女  珠海市金峰学校
37013   女  斗门区城东中学
17005   男  北京师范大学珠海分校附属外国语学校
27024   女  珠海市香洲区壮志学校
27017   女  珠海市香洲区明珠中英文学校
27005   女  珠海市前山中学
28002   男  珠海市金鼎中学
27021   男  珠海市新世纪学校
27022   男  珠海市香洲区立才学校
27019   女  珠海市恩溢学校
29001   女  珠海市横琴新区第一中学
27007   女  珠海市湾仔中学
47006   女  珠海市金湾区外国语学校
17001   男  珠海市第四中学
37003   男  斗门区第四中学
47003   女  珠海市三灶中学
37010   女  斗门区白藤湖初级中学
37007   女  斗门区白蕉镇六乡初级中学
37009   女  斗门区莲洲镇横山初级中学
27001   女  珠海市紫荆中学 凤凰路校区
27018   女  珠海东方外语实验学校
37002   男  斗门区第二中学
37016   女  斗门区井岸西埔新徽实验学校
27023   女  珠海市香洲区壮华学校
37006   女  斗门区乾务镇初级中学
17002   女  珠海市体育运动学校
17003   女  珠海女子中学
27002   男  珠海市紫荆中学桃园校区
37011   女  斗门区斗门镇初级中学
